<?xml version="1.0" encoding="UTF-8"?>
<svg width="204px" height="146px" viewBox="0 0 204 146" version="1.1" xmlns="http://www.w3.org/2000/svg" xmlns:xlink="http://www.w3.org/1999/xlink">
    <!-- Generator: Sketch 63.1 (92452) - https://sketch.com -->
    <title>illustrations_empty-state_security-dashboard-config-permission</title>
    <desc>Created with Sketch.</desc>
    <g id="Pricing-page--Post-Test-Export" stroke="none" stroke-width="1" fill="none" fill-rule="evenodd">
        <g id="1.compareAllPlans--TabFeatureComp--spacing" transform="translate(-1092.000000, -366.000000)">
            <g id="card--gold-2" transform="translate(1044.000000, 307.000000)">
                <g id="Group-8">
                    <g id="card--gold">
                        <g id="Group-14">
                            <g id="illustrations_empty-state_security-dashboard-config-permission" transform="translate(50.000000, 61.000000)">
                                <g id="Group" transform="translate(99.615385, 138.846154) rotate(180.000000) translate(-99.615385, -138.846154) translate(50.769231, 134.615385)" fill-rule="nonzero">
                                    <g id="a-link" fill="#6E49CB">
                                        <rect id="a" x="0" y="0" width="12.7530364" height="2.56410256" rx="1.28205128"></rect>
                                    </g>
                                    <g id="a-link" fill="#FFFFFF" fill-opacity="0.8">
                                        <rect id="a" x="0" y="0" width="12.7530364" height="2.56410256" rx="1.28205128"></rect>
                                    </g>
                                    <g id="b-link" transform="translate(17.854251, 0.000000)" fill="#6E49CB">
                                        <rect id="b" x="0" y="0" width="58.6639676" height="2.56410256" rx="1.28205128"></rect>
                                    </g>
                                    <g id="b-link" transform="translate(17.854251, 0.000000)" fill="#FFFFFF" fill-opacity="0.8">
                                        <rect id="b" x="0" y="0" width="58.6639676" height="2.56410256" rx="1.28205128"></rect>
                                    </g>
                                    <g id="c-link" transform="translate(10.202429, 5.128205)" fill="#6E49CB">
                                        <rect id="c" x="0" y="0" width="22.9554656" height="2.56410256" rx="1.28205128"></rect>
                                    </g>
                                    <g id="c-link" transform="translate(10.202429, 5.128205)" fill="#FFFFFF" fill-opacity="0.8">
                                        <rect id="c" x="0" y="0" width="22.9554656" height="2.56410256" rx="1.28205128"></rect>
                                    </g>
                                    <g id="d-link" transform="translate(38.259109, 5.128205)" fill="#6E49CB">
                                        <rect id="d" x="0" y="0" width="58.6639676" height="2.56410256" rx="1.28205128"></rect>
                                    </g>
                                    <g id="d-link" transform="translate(38.259109, 5.128205)" fill="#FFFFFF" fill-opacity="0.8">
                                        <rect id="d" x="0" y="0" width="58.6639676" height="2.56410256" rx="1.28205128"></rect>
                                    </g>
                                </g>
                                <g id="Group" transform="translate(131.538462, 42.307692)">
                                    <rect id="Rectangle" stroke="#C2B7E6" stroke-width="4" fill="#F9F9F9" fill-rule="nonzero" x="0" y="0" width="68.4615385" height="75.3846154" rx="4"></rect>
                                    <g id="e-link" transform="translate(20.284900, 25.554107)" fill="#FC6D26" fill-rule="nonzero">
                                        <rect id="e" x="0" y="0" width="27.8917379" height="15.3324641" rx="7.66623207"></rect>
                                    </g>
                                    <g id="e-link" transform="translate(20.284900, 25.554107)" fill="#FFFFFF" fill-opacity="0.8" fill-rule="nonzero">
                                        <rect id="e" x="0" y="0" width="27.8917379" height="15.3324641" rx="7.66623207"></rect>
                                    </g>
                                    <g transform="translate(34.230769, 26.831812)" stroke="#FC6D26">
                                        <ellipse id="Oval" stroke-width="4" fill="#FCF0EA" fill-rule="nonzero" cx="6.33903134" cy="6.38852673" rx="6.33903134" ry="6.38852673"></ellipse>
                                        <line x1="4.43732194" y1="4.47196871" x2="8.24074074" y2="8.30508475" id="Path" stroke-width="2" stroke-linecap="round"></line>
                                        <line x1="4.43732194" y1="4.47196871" x2="8.24074074" y2="8.30508475" id="Path" stroke-width="2" stroke-linecap="round" transform="translate(6.339031, 6.388527) scale(-1, 1) translate(-6.339031, -6.388527) "></line>
                                    </g>
                                    <g id="f-link" transform="translate(20.284900, 45.997392)" fill="#FC6D26" fill-rule="nonzero">
                                        <rect id="f" x="0" y="0" width="27.8917379" height="15.3324641" rx="7.66623207"></rect>
                                    </g>
                                    <g id="f-link" transform="translate(20.284900, 45.997392)" fill="#FFFFFF" fill-opacity="0.8" fill-rule="nonzero">
                                        <rect id="f" x="0" y="0" width="27.8917379" height="15.3324641" rx="7.66623207"></rect>
                                    </g>
                                    <g transform="translate(34.230769, 47.275098)" stroke="#FC6D26">
                                        <ellipse id="Oval" stroke-width="4" fill="#FCF0EA" fill-rule="nonzero" cx="6.33903134" cy="6.38852673" rx="6.33903134" ry="6.38852673"></ellipse>
                                        <line x1="4.43732194" y1="4.47196871" x2="8.24074074" y2="8.30508475" id="Path" stroke-width="2" stroke-linecap="round"></line>
                                        <line x1="4.43732194" y1="4.47196871" x2="8.24074074" y2="8.30508475" id="Path" stroke-width="2" stroke-linecap="round" transform="translate(6.339031, 6.388527) scale(-1, 1) translate(-6.339031, -6.388527) "></line>
                                    </g>
                                    <g id="g-link" transform="translate(22.820513, 4.471969)" fill="#6E49CB" fill-rule="nonzero">
                                        <path d="M1.26780627,0 L21.5527066,0 C22.2528966,0 22.8205128,0.572048168 22.8205128,1.27770535 C22.8205128,1.98336252 22.2528966,2.55541069 21.5527066,2.55541069 L1.26780627,2.55541069 C0.5676162,2.55541069 0,1.98336252 0,1.27770535 C0,0.572048168 0.5676162,0 1.26780627,0 Z" id="g"></path>
                                    </g>
                                    <g id="g-link" transform="translate(22.820513, 4.471969)" fill="#FFFFFF" fill-opacity="0.8" fill-rule="nonzero">
                                        <path d="M1.26780627,0 L21.5527066,0 C22.2528966,0 22.8205128,0.572048168 22.8205128,1.27770535 C22.8205128,1.98336252 22.2528966,2.55541069 21.5527066,2.55541069 L1.26780627,2.55541069 C0.5676162,2.55541069 0,1.98336252 0,1.27770535 C0,0.572048168 0.5676162,0 1.26780627,0 Z" id="g"></path>
                                    </g>
                                    <line x1="15.2136752" y1="11.2759992" x2="66.5594836" y2="11.0826464" id="Path" stroke="#C2B7E6" stroke-width="2" stroke-linecap="square"></line>
                                </g>
                                <g id="Group" transform="translate(0.000000, 48.461538)">
                                    <rect id="Rectangle" stroke="#C2B7E6" stroke-width="4" fill="#F9F9F9" fill-rule="nonzero" x="0" y="0" width="68.4615385" height="69.2307692" rx="4"></rect>
                                    <line x1="13.3119658" y1="25" x2="13.3119658" y2="61.5384615" id="Path" stroke="#C2B7E6" stroke-width="4" stroke-linecap="round"></line>
                                    <g id="h-link" transform="translate(22.186610, 4.487179)" fill="#6E49CB" fill-rule="nonzero">
                                        <path d="M1.26780627,0 L21.5527066,0 C22.2528966,0 22.8205128,0.57399391 22.8205128,1.28205128 C22.8205128,1.99010865 22.2528966,2.56410256 21.5527066,2.56410256 L1.26780627,2.56410256 C0.5676162,2.56410256 0,1.99010865 0,1.28205128 C0,0.57399391 0.5676162,0 1.26780627,0 Z" id="h"></path>
                                    </g>
                                    <g id="h-link" transform="translate(22.186610, 4.487179)" fill="#FFFFFF" fill-opacity="0.8" fill-rule="nonzero">
                                        <path d="M1.26780627,0 L21.5527066,0 C22.2528966,0 22.8205128,0.57399391 22.8205128,1.28205128 C22.8205128,1.99010865 22.2528966,2.56410256 21.5527066,2.56410256 L1.26780627,2.56410256 C0.5676162,2.56410256 0,1.99010865 0,1.28205128 C0,0.57399391 0.5676162,0 1.26780627,0 Z" id="h"></path>
                                    </g>
                                    <line x1="6.97293447" y1="55.1282051" x2="59.5868946" y2="55.1282051" id="Path" stroke="#C2B7E6" stroke-width="4" stroke-linecap="round"></line>
                                    <line x1="1.9017094" y1="11.3143529" x2="53.2475176" y2="11.1203424" id="Path" stroke="#C2B7E6" stroke-width="2" stroke-linecap="square"></line>
                                    <path d="M28.525641,30.7692308 L28.525641,28.2051282 C28.525641,25.3728987 30.7961058,23.0769231 33.5968661,23.0769231 C36.3976264,23.0769231 38.6680912,25.3728987 38.6680912,28.2051282 L38.6680912,30.7692308 L41.2037037,30.7692308 L41.2037037,43.5897436 L25.9900285,43.5897436 L25.9900285,30.7692308 L28.525641,30.7692308 Z M31.0612536,30.7692308 L36.1324786,30.7692308 L36.1324786,28.2051282 C36.1324786,26.7890135 34.9972462,25.6410256 33.5968661,25.6410256 C32.196486,25.6410256 31.0612536,26.7890135 31.0612536,28.2051282 L31.0612536,30.7692308 Z M28.525641,33.3333333 L28.525641,41.025641 L38.6680912,41.025641 L38.6680912,33.3333333 L28.525641,33.3333333 Z M32.3290598,35.8974359 L34.8646724,35.8974359 L34.8646724,38.4615385 L32.3290598,38.4615385 L32.3290598,35.8974359 Z" id="Shape" fill="#FC6D26" fill-rule="nonzero"></path>
                                </g>
                                <g id="Group" transform="translate(55.384615, 12.307692)">
                                    <rect id="Rectangle" stroke="#6E49CB" stroke-width="4" fill="#EFEDF8" fill-rule="nonzero" x="0" y="0" width="89.2307692" height="115.384615" rx="8"></rect>
                                    <rect id="Rectangle" stroke="#FFFFFF" stroke-width="2" fill="#FC6D26" fill-rule="nonzero" x="18.4835165" y="5.0998725" width="52.2637363" height="6.37484063" rx="3.18742031"></rect>
                                    <path d="M77.1030081,62.4734382 C77.1149134,62.1093096 77.1208791,61.7443419 77.1208791,61.3786286 C77.1208791,43.7513092 63.2501645,29.3847854 45.8901099,28.7114615 L45.8901099,62.4734382 L77.1030081,62.4734382 Z" id="Path" stroke="#FC6D26" stroke-width="4" fill="#FFFFFF" fill-rule="nonzero"></path>
                                    <path d="M41.4285714,37.6189999 C26.9387713,37.9576205 15.2967033,49.8119211 15.2967033,64.3858904 C15.2967033,79.1729445 27.2816961,91.160221 42.0659341,91.160221 C55.9250399,91.160221 67.4270313,80.5901902 68.7154108,66.9358266 L41.4285714,66.9358266 L41.4285714,37.6189999 Z" id="Path" stroke="#C2B7E6" stroke-width="2" fill="#FFFFFF" fill-rule="nonzero"></path>
                                    <line x1="1.91208791" y1="15.7145673" x2="87.3186813" y2="15.5221518" id="Path" stroke="#C2B7E6" stroke-width="2" stroke-linecap="square"></line>
                                    <path d="M58.6373116,52.2736932 C60.0453222,52.2736932 61.1868132,53.4152996 61.1868132,54.8236294 C61.1868132,56.2319592 60.0453987,57.3735657 58.6373626,57.3735657 C57.2293521,57.3735657 56.0879121,56.2319592 56.0879121,54.8236294 C56.0879121,53.4152996 57.2293011,52.2736932 58.6373116,52.2736932 Z M58.6373748,39.5240119 C60.4157938,39.5240119 61.6467788,41.3725117 61.0223303,43.1053719 L58.6373748,52.2736932 L56.2523949,43.1053719 C55.6279463,41.3725117 56.8589313,39.5240119 58.6373748,39.5240119 Z" id="Shape" fill="#FC6D26" fill-rule="nonzero"></path>
                                    <path d="M68.8351648,81.5979601 L80.9450549,81.5979601 M14.6593407,31.2367191 L36.967033,31.2367191" id="Shape" stroke="#C2B7E6" stroke-width="4" stroke-linecap="round"></path>
                                    <path d="M14.6593407,100.084998 L74.5714286,100.084998 M14.6593407,105.822354 L64.3736264,105.822354" id="Shape" stroke="#FFFFFF" stroke-width="4" stroke-linecap="round"></path>
                                    <line x1="68.8351648" y1="86.6978326" x2="75.8461538" y2="86.6978326" id="Path" stroke="#C2B7E6" stroke-width="4" stroke-linecap="round"></line>
                                </g>
                                <g id="Group" transform="translate(108.461538, 0.000000)">
                                    <g id="i-link" transform="translate(17.895928, 32.972973)" fill="#6E49CB" fill-rule="nonzero">
                                        <rect id="i" x="0" y="0" width="31.3178733" height="2.53638254" rx="1.26819127"></rect>
                                    </g>
                                    <g id="i-link" transform="translate(17.895928, 32.972973)" fill="#FFFFFF" fill-opacity="0.8" fill-rule="nonzero">
                                        <rect id="i" x="0" y="0" width="31.3178733" height="2.53638254" rx="1.26819127"></rect>
                                    </g>
                                    <path d="M55.7203612,34.2411642 L69.6662896,34.2411642 C79.1969499,34.2411642 86.9230769,26.5760185 86.9230769,17.1205821 C86.9230769,7.66514574 79.1969499,0 69.6662896,0 C60.1356291,0 52.4095023,7.66514574 52.4095023,17.1205821 C52.4095023,21.5833178 54.1305821,25.6472466 56.9501586,28.6946992" id="Path" stroke="#C2B7E6" stroke-width="4" stroke-linecap="round"></path>
                                    <path d="M12.7323591,34.1907179 C5.72833208,34.1907179 0.050446374,39.9137748 0.050446374,46.9735233" id="Path" stroke="#C2B7E6" stroke-width="4" stroke-linecap="round" transform="translate(6.391403, 40.582121) scale(-1, 1) rotate(90.000000) translate(-6.391403, -40.582121) "></path>
                                    <path d="M68.0966633,7.84220565 C68.2706501,7.3243499 68.7591322,6.97505198 69.3093425,6.97505198 L70.0232367,6.97505198 C70.5734469,6.97505198 71.0619291,7.3243499 71.2359158,7.84220565 L71.9076523,9.84149397 C72.3826357,9.98526881 72.8379593,10.1735318 73.2688676,10.4014131 L75.1694152,9.45867775 C75.6615532,9.21455094 76.2558258,9.31024865 76.6449344,9.69623534 L77.1497274,10.1970441 C77.538836,10.5830308 77.6352183,11.1727017 77.3891493,11.6609426 L76.4390034,13.5464387 C76.6685826,13.9739206 76.8584072,14.4257137 77.0032364,14.8969102 L79.0184457,15.5633447 C79.5404955,15.7359582 79.8925339,16.2205848 79.8925339,16.7664524 L79.8925339,17.4747119 C79.8925339,18.0205794 79.5404955,18.505206 79.0184457,18.6778195 L77.0032364,19.3442541 C76.8584072,19.8154886 76.6685826,20.2672183 76.4390034,20.6947256 L77.3891493,22.5802723 C77.6352183,23.0683992 77.538836,23.6581081 77.1497274,24.0441455 L76.6449344,24.5449543 C76.2558258,24.9308649 75.6615532,25.0266133 75.1694152,24.7824865 L73.2688676,23.8397131 C72.8379593,24.0676071 72.3826357,24.2559335 71.9076523,24.3996195 L71.2359158,26.3989231 C71.0619291,26.9168524 70.5734469,27.2661123 70.0232367,27.2661123 L69.3093425,27.2661123 C68.7591322,27.2661123 68.2706501,26.9168524 68.0966633,26.3989231 L67.4249269,24.3996195 C66.9499818,24.2559335 66.4946071,24.0676071 66.0637371,23.8398399 L64.1631768,24.7826133 C63.6710516,25.0267401 63.0766895,24.9309917 62.687632,24.5449543 L62.1828262,24.0441455 C61.7937688,23.6582349 61.6973225,23.068526 61.9433787,22.5802723 L62.8936525,20.6947256 C62.663971,20.2672183 62.4742103,19.8154886 62.3292916,19.3442541 L60.3140977,18.6778195 C59.7921221,18.505206 59.4400452,18.0205794 59.4400452,17.4747119 L59.4400452,16.7664524 C59.4400452,16.2205848 59.7921221,15.7359582 60.3140977,15.5633447 L62.3292916,14.8969102 C62.4742103,14.425701 62.663971,13.9738952 62.8936525,13.5464006 L61.9433915,11.6608665 C61.6973225,11.1726256 61.7937816,10.5829547 62.182839,10.196968 L62.687632,9.69614657 C63.0766895,9.31015988 63.6710644,9.21447484 64.1631768,9.45858898 L66.0637371,10.4013751 C66.4946199,10.1735191 66.9499946,9.98525613 67.4249269,9.84149397 L68.0966633,7.84220565 Z M69.6662896,22.1933472 C72.4901391,22.1933472 74.7794118,19.9221435 74.7794118,17.1205821 C74.7794118,14.3189701 72.4901391,12.047817 69.6662896,12.047817 C66.8423889,12.047817 64.5531674,14.3189701 64.5531674,17.1205821 C64.5531674,19.9221435 66.8423889,22.1933472 69.6662896,22.1933472 Z" id="Shape" fill="#6E49CB" fill-rule="nonzero"></path>
                                </g>
                            </g>
                        </g>
                    </g>
                </g>
            </g>
        </g>
    </g>
</svg>